<svg width="1000" height="1000" viewBox="0 0 1000 1000" fill="none" xmlns="http://www.w3.org/2000/svg">
<rect width="1000" height="1000" fill="#309B42"/>
<rect x="100" y="382" width="819" height="247" fill="white"/>
<path d="M55 500.5V666H513.481H944.563V500.5V335H513.481H55V500.5ZM621.251 389.983C653.582 400.097 676.598 423.267 688.106 457.286C694.499 476.227 696.143 508.775 691.759 529.922C679.338 589.87 623.809 624.809 561.886 611.753C506.722 599.984 473.661 548.127 480.784 484.502C483.707 456.734 492.475 436.139 508.366 418.669C523.71 401.752 543.803 390.718 567.366 386.489C580.883 384.098 607.734 385.753 621.251 389.983ZM833.687 389.247C852.866 394.212 867.662 404.142 876.064 417.934C881.179 425.841 886.111 441.839 886.111 450.298V456.367H862.365H838.619V451.769C838.619 441.839 829.851 430.99 818.709 427.128C811.037 424.554 794.232 424.554 785.464 426.944C767.198 432.093 763.545 455.999 779.802 464.458C782.542 465.745 798.799 470.894 815.786 475.675C832.956 480.272 852.866 487.26 860.173 490.754C890.495 505.649 901.637 532.313 891.591 565.413C881.727 597.777 845.195 616.718 798.433 613.959C756.604 611.385 727.56 592.628 718.062 561.919C716.053 555.299 714.409 546.472 714.409 542.611V535.439H739.068H763.727V541.323C763.727 548.495 769.207 560.816 773.957 565.229C781.263 571.665 791.675 574.607 807.566 574.791C832.956 575.159 845.925 565.964 845.925 547.943C845.925 534.336 839.532 530.29 800.625 519.073C757.7 506.568 749.663 502.891 737.79 491.306C725.003 478.801 720.802 466.664 722.081 446.988C724.09 418.853 743.087 397.522 773.409 389.247C786.378 385.753 820.353 385.753 833.687 389.247ZM261.408 410.394V430.622H211.176H162.77V453.608V476.594H207.523H252.275V495.903V515.211H207.523H162.77V540.956V566.7H212.089H261.408V608.994H187.43H113.452V499.581V390.167H186.516H261.408V410.394ZM355.479 465.929C368.448 506.936 379.407 540.036 379.59 539.484C379.773 538.749 390.732 504.913 403.884 464.09L427.813 390.167H453.568C473.295 390.167 478.41 390.167 478.41 390.167C477.862 391.454 461.605 442.943 442.06 501.787L406.624 608.994H378.859H351.095L318.033 507.304C299.767 451.586 283.692 394.028 282.231 390.167C282.231 390.167 291.364 389.983 305.612 390.167H331.733L355.479 465.929Z" fill="#309B42"/>
<path d="M906.934 390.903C901.819 396.052 900.723 398.442 900.723 405.062C900.723 422.164 913.875 431.91 929.949 427.129C940.361 424.003 945.11 416.279 944.014 404.143C942.918 391.27 935.612 384.65 922.46 384.65C914.24 384.65 912.413 385.386 906.934 390.903ZM934.516 394.029C937.438 397.155 937.621 398.626 935.977 403.039C934.698 406.349 934.698 408.924 935.794 410.027C936.707 410.947 937.255 414.073 936.89 417.015C936.16 423.451 929.584 424.738 928.488 418.67C926.661 409.108 919.537 407.453 918.624 416.279C918.259 420.877 917.163 422.532 914.057 422.899C910.039 423.451 909.856 423.083 909.856 406.901V390.167H920.451C929.036 390.167 931.958 390.903 934.516 394.029Z" fill="#309B42"/>
<path d="M918.99 400.277C918.99 401.932 920.634 403.036 923.556 403.036C928.671 403.036 929.767 400.277 925.2 398.622C920.634 396.783 918.99 397.335 918.99 400.277Z" fill="#309B42"/>
<path d="M567.55 429.522C545.813 437.613 532.296 460.415 530.47 491.492C528.643 519.26 534.671 541.326 547.457 555.67C557.686 566.887 566.454 570.932 584.355 571.852C602.621 572.771 612.668 569.645 624.175 558.98C649.748 535.258 651.757 472.368 627.828 443.865C618.33 432.648 607.918 428.051 590.383 427.499C579.971 427.131 572.299 427.867 567.55 429.522Z" fill="#309B42"/>
</svg>
